…
We can use the vector to extract all these spectra as a collection.

``` r
filters.mspct[polyester_filters]
#> Object: filter_mspct [2 x 1]
#> --- Member: Foiltek_Clear_PET_G ---
#> Object: filter_spct [344 x 2]
#> Wavelength range 190-1100 nm, step 1-4 nm 
#> Label: Polyethylene terephthalate (PET), 'polyester'; clear sheet; new 
#> Rfr (/1): 0.097, thickness (mm): 3.00, attenuation mode: absorption.
#> Variables:
#>  w.length: Wavelength [nm]
#>  Tfr: Total spectral transmittance [/1] 
#> --
#> # A tibble: 344 × 2
#>    w.length      Tfr
#>       <dbl>    <dbl>
#>  1      190 0.000105
#>  2      194 0.000102
#>  3      198 0.000100
#>  4      201 0.000100
#>  5      202 0.000100
#>  6      206 0.000100
#>  7      209 0.000100
#>  8      210 0.000100
#>  9      214 0.000102
#> 10      215 0.000102
#> # ℹ 334 more rows
#> --- Member: McDermit_PET_Autostat_CT5_125um ---
#> Object: filter_spct [465 x 2]
#> Wavelength range 240-800 nm, step 1-4 nm 
#> Label: Polyester, clear film, 0.000125 m thick, Autostat CT5 from McDermit Autotype; new 
#> Rfr (/1): 0.074, thickness (mm): 0.125, attenuation mode: absorption.
#> Variables:
#>  w.length: Wavelength [nm]
#>  Tfr: Total spectral transmittance [/1] 
#> --
#> # A tibble: 465 × 2
#>    w.length     Tfr
#>       <int>   <dbl>
#>  1      240 0.00482
#>  2      241 0.00464
#>  3      242 0.00446
#>  4      244 0.00414
#>  5      246 0.004  
#>  6      248 0.004  
#>  7      252 0.00386
#>  8      256 0.00329
#>  9      258 0.003  
#> 10      259 0.003  
#> # ℹ 455 more rows
…
