User Guide 1: The data and how to use them
…
We can use a character string with the name as an index to extract an
individual spectrum.

filters.mspct$Schott_UG11

## Object: filter_spct [706 x 2]
## Wavelength range 200-5200 nm, step 1-50 nm 
## Label: SCHOTT UG11 1mm-thick 
## Rfr (/1): 0.092, thickness (mm): 1.00, attenuation mode: absorption.
## Variables:
##  w.length: Wavelength [nm]
##  Tfr: Internal spectral transmittance [/1] 
## --
## # A tibble: 706 × 2
##    w.length     Tfr
##       <dbl>   <dbl>
##  1      200 0.00001
##  2      204 0.00001
##  3      207 0.00001
##  4      208 0.00001
##  5      209 0.00001
##  6      210 0.00001
##  7      211 0.00001
##  8      212 0.00001
##  9      213 0.00001
## 10      214 0.00001
## # ℹ 696 more rows

filters.mspct[["Schott_UG11"]]

## Object: filter_spct [706 x 2]
## Wavelength range 200-5200 nm, step 1-50 nm 
## Label: SCHOTT UG11 1mm-thick 
## Rfr (/1): 0.092, thickness (mm): 1.00, attenuation mode: absorption.
## Variables:
##  w.length: Wavelength [nm]
##  Tfr: Internal spectral transmittance [/1] 
## --
## # A tibble: 706 × 2
##    w.length     Tfr
##       <dbl>   <dbl>
##  1      200 0.00001
##  2      204 0.00001
##  3      207 0.00001
##  4      208 0.00001
##  5      209 0.00001
##  6      210 0.00001
##  7      211 0.00001
##  8      212 0.00001
##  9      213 0.00001
## 10      214 0.00001
## # ℹ 696 more rows
…
filters.mspct["Schott_UG11"]

## Object: filter_mspct [1 x 1]
## --- Member: Schott_UG11 ---
## Object: filter_spct [706 x 2]
## Wavelength range 200-5200 nm, step 1-50 nm 
## Label: SCHOTT UG11 1mm-thick 
## Rfr (/1): 0.092, thickness (mm): 1.00, attenuation mode: absorption.
## Variables:
##  w.length: Wavelength [nm]
##  Tfr: Internal spectral transmittance [/1] 
## --
## # A tibble: 706 × 2
##    w.length     Tfr
##       <dbl>   <dbl>
##  1      200 0.00001
##  2      204 0.00001
##  3      207 0.00001
##  4      208 0.00001
##  5      209 0.00001
##  6      210 0.00001
##  7      211 0.00001
##  8      212 0.00001
##  9      213 0.00001
## 10      214 0.00001
## # ℹ 696 more rows
## 
## --- END ---
…
filters.mspct[petri_dishes]

## Object: filter_mspct [3 x 1]
## --- Member: glass_nn ---
## Object: filter_spct [325 x 2]
## Wavelength range 190-1100 nm, step 1-4 nm 
## Label: Petri dish lid;  glass 
## Rfr (/1): 0.080, thickness (mm): NA, attenuation mode: absorption.
## Variables:
##  w.length: Wavelength [nm]
##  Tfr: Total spectral transmittance [/1] 
## --
## # A tibble: 325 × 2
##    w.length      Tfr
##       <int>    <dbl>
##  1      190 0.000142
##  2      194 0.000129
##  3      198 0.000117
##  4      202 0.000105
##  5      206 0.000102
##  6      207 0.000102
##  7      210 0.000103
##  8      214 0.000106
##  9      218 0.000106
## 10      219 0.000106
## # ℹ 315 more rows
## --- Member: PS_Sterilin101 ---
## Object: filter_spct [333 x 2]
## Wavelength range 190-1100 nm, step 1-4 nm 
## Label: Petri dish lid;  polystyrene;  Sterilin101 
## Rfr (/1): 0.104, thickness (mm): NA, attenuation mode: absorption.
## Variables:
##  w.length: Wavelength [nm]
##  Tfr: Total spectral transmittance [/1] 
## --
## # A tibble: 333 × 2
##    w.length      Tfr
##       <int>    <dbl>
##  1      190 0.000127
##  2      194 0.000119
##  3      198 0.000111
##  4      202 0.000105
##  5      206 0.000100
##  6      207 0.000100
##  7      208 0.000100
##  8      210 0.000100
##  9      214 0.000106
## 10      218 0.000108
## # ℹ 323 more rows
## --- Member: PS_Sterilin109 ---
## Object: filter_spct [318 x 2]
## Wavelength range 190-1100 nm, step 1-4 nm 
## Label: Petri dish lid;  polystyrene;  Sterilin109 
## Rfr (/1): 0.098, thickness (mm): NA, attenuation mode: absorption.
## Variables:
##  w.length: Wavelength [nm]
##  Tfr: Total spectral transmittance [/1] 
## --
## # A tibble: 318 × 2
##    w.length      Tfr
##       <int>    <dbl>
##  1      190 0.000134
##  2      194 0.000124
##  3      198 0.000115
##  4      202 0.000104
##  5      206 0.000106
##  6      210 0.000108
##  7      213 0.000112
##  8      214 0.000112
##  9      218 0.000112
## 10      222 0.000107
## # ℹ 308 more rows
## 
## --- END ---
…
filters.mspct[grep("UG", names(filters.mspct))]

## Object: filter_mspct [5 x 1]
## --- Member: Schott_UG1 ---
## Object: filter_spct [613 x 2]
## Wavelength range 258-5200 nm, step 1-50 nm 
## Label: SCHOTT UG1 1mm-thick 
## Rfr (/1): 0.086, thickness (mm): 1.00, attenuation mode: absorption.
## Variables:
##  w.length: Wavelength [nm]
##  Tfr: Internal spectral transmittance [/1] 
## --
## # A tibble: 613 × 2
##    w.length      Tfr
##       <dbl>    <dbl>
##  1      258 4.30e-12
##  2      262 2.63e- 9
##  3      266 2.96e- 7
##  4      270 9.86e- 6
##  5      274 1.45e- 4
##  6      278 1.05e- 3
##  7      279 1.60e- 3
##  8      280 2.38e- 3
##  9      281 3.43e- 3
## 10      282 4.81e- 3
## # ℹ 603 more rows
## --- Member: Schott_UG11 ---
## Object: filter_spct [706 x 2]
## Wavelength range 200-5200 nm, step 1-50 nm 
## Label: SCHOTT UG11 1mm-thick 
## Rfr (/1): 0.092, thickness (mm): 1.00, attenuation mode: absorption.
## Variables:
##  w.length: Wavelength [nm]
##  Tfr: Internal spectral transmittance [/1] 
## --
## # A tibble: 706 × 2
##    w.length     Tfr
##       <dbl>   <dbl>
##  1      200 0.00001
##  2      204 0.00001
##  3      207 0.00001
##  4      208 0.00001
##  5      209 0.00001
##  6      210 0.00001
##  7      211 0.00001
##  8      212 0.00001
##  9      213 0.00001
## 10      214 0.00001
## # ℹ 696 more rows
## --- Member: Schott_UG2A ---
## Object: filter_spct [653 x 2]
## Wavelength range 269-5200 nm, step 1-55 nm 
## Label: SCHOTT UG2A 3.25mm-thick 
## Rfr (/1): 0.082, thickness (mm): 3.25, attenuation mode: absorption.
## Variables:
##  w.length: Wavelength [nm]
##  Tfr: Internal spectral transmittance [/1] 
## --
## # A tibble: 653 × 2
##    w.length      Tfr
##       <dbl>    <dbl>
##  1      269 4.12e-22
##  2      273 1.54e-16
##  3      277 3.15e-12
##  4      281 4.69e- 9
##  5      285 8.80e- 7
##  6      289 3.98e- 5
##  7      293 6.29e- 4
##  8      294 1.09e- 3
##  9      295 1.84e- 3
## 10      296 2.95e- 3
## # ℹ 643 more rows
## --- Member: Schott_UG5 ---
## Object: filter_spct [652 x 2]
## Wavelength range 200-5200 nm, step 1-50 nm 
## Label: SCHOTT UG5 1mm-thick 
## Rfr (/1): 0.086, thickness (mm): 1.00, attenuation mode: absorption.
## Variables:
##  w.length: Wavelength [nm]
##  Tfr: Internal spectral transmittance [/1] 
## --
## # A tibble: 652 × 2
##    w.length      Tfr
##       <dbl>    <dbl>
##  1      200 0.00001 
##  2      204 0.00001 
##  3      207 0.00001 
##  4      208 0.00001 
##  5      209 0.00001 
##  6      212 0.000315
##  7      213 0.000817
##  8      214 0.00200 
##  9      215 0.00452 
## 10      216 0.0109  
## # ℹ 642 more rows
## --- Member: UQG_UG1_2mm ---
## Object: filter_spct [401 x 2]
## Wavelength range 190-1020 nm, step 1-4 nm 
## Label: Glass filter: UQG UG1 2mm 
## Rfr (/1): 0.077, thickness (mm): 2.00, attenuation mode: absorption.
## Variables:
##  w.length: Wavelength [nm]
##  Tfr: Total spectral transmittance [/1] 
## --
## # A tibble: 401 × 2
##    w.length      Tfr
##       <dbl>    <dbl>
##  1      190 0.000112
##  2      194 0.000107
##  3      198 0.000102
##  4      202 0.000102
##  5      206 0.000101
##  6      210 0.000100
##  7      214 0.000100
##  8      217 0.000100
##  9      218 0.000100
## 10      219 0.000100
## # ℹ 391 more rows
## 
## --- END ---
…
filters.mspct$Schott_UG11

## Object: filter_spct [706 x 2]
## Wavelength range 200-5200 nm, step 1-50 nm 
## Label: SCHOTT UG11 1mm-thick 
## Rfr (/1): 0.092, thickness (mm): 1.00, attenuation mode: absorption.
## Variables:
##  w.length: Wavelength [nm]
##  Tfr: Internal spectral transmittance [/1] 
## --
## # A tibble: 706 × 2
##    w.length     Tfr
##       <dbl>   <dbl>
##  1      200 0.00001
##  2      204 0.00001
##  3      207 0.00001
##  4      208 0.00001
##  5      209 0.00001
##  6      210 0.00001
##  7      211 0.00001
##  8      212 0.00001
##  9      213 0.00001
## 10      214 0.00001
## # ℹ 696 more rows
…
convertThickness(filters.mspct$Schott_UG11, thickness = 4e-3)

## Object: filter_spct [706 x 2]
## Wavelength range 200-5200 nm, step 1-50 nm 
## Label: SCHOTT UG11 1mm-thick 
## Rfr (/1): 0.092, thickness (mm): 4.00, attenuation mode: absorption.
## Variables:
##  w.length: Wavelength [nm]
##  Tfr: Internal spectral transmittance [/1] 
## --
## # A tibble: 706 × 2
##    w.length   Tfr
##       <dbl> <dbl>
##  1      200 1e-20
##  2      204 1e-20
##  3      207 1e-20
##  4      208 1e-20
##  5      209 1e-20
##  6      210 1e-20
##  7      211 1e-20
##  8      212 1e-20
##  9      213 1e-20
## 10      214 1e-20
## # ℹ 696 more rows

We can also convert "internal" transmittance into
"total" transmittance.

convertTfrType(filters.mspct$Schott_UG11, Tfr.type = "total")

## Object: filter_spct [706 x 2]
## Wavelength range 200-5200 nm, step 1-50 nm 
## Label: SCHOTT UG11 1mm-thick 
## Rfr (/1): 0.092, thickness (mm): 1.00, attenuation mode: absorption.
## Variables:
##  w.length: Wavelength [nm]
##  Tfr: Total spectral transmittance [/1] 
## --
## # A tibble: 706 × 2
##    w.length        Tfr
##       <dbl>      <dbl>
##  1      200 0.00000908
##  2      204 0.00000908
##  3      207 0.00000908
##  4      208 0.00000908
##  5      209 0.00000908
##  6      210 0.00000908
##  7      211 0.00000908
##  8      212 0.00000908
##  9      213 0.00000908
## 10      214 0.00000908
## # ℹ 696 more rows
Conversion between transmittance, absorptance and absorbance is also
possible. In package ‘photobiology’ fractions of one are used to express
transmittance, reflectance and absorptance.

any2Afr(filters.mspct$Schott_UG11, action = "replace")

## Object: filter_spct [706 x 2]
## Wavelength range 200-5200 nm, step 1-50 nm 
## Label: SCHOTT UG11 1mm-thick 
## Rfr (/1): 0.092, thickness (mm): 1.00, attenuation mode: absorption.
## Variables:
##  w.length: Wavelength [nm]
##  Afr: Spectral absorptance [/1] 
## --
## # A tibble: 706 × 2
##    w.length   Afr
##       <dbl> <dbl>
##  1      200 1.000
##  2      204 1.000
##  3      207 1.000
##  4      208 1.000
##  5      209 1.000
##  6      210 1.000
##  7      211 1.000
##  8      212 1.000
##  9      213 1.000
## 10      214 1.000
## # ℹ 696 more rows
…
any2A(filters.mspct$Schott_UG11, action = "replace")

## Object: filter_spct [706 x 2]
## Wavelength range 200-5200 nm, step 1-50 nm 
## Label: SCHOTT UG11 1mm-thick 
## Rfr (/1): 0.092, thickness (mm): 1.00, attenuation mode: absorption.
## Variables:
##  w.length: Wavelength [nm]
##  A: Spectral absorbance log10 based [a.u.] 
## --
## # A tibble: 706 × 2
##    w.length     A
##       <dbl> <dbl>
##  1      200     5
##  2      204     5
##  3      207     5
##  4      208     5
##  5      209     5
##  6      210     5
##  7      211     5
##  8      212     5
##  9      213     5
## 10      214     5
## # ℹ 696 more rows
…
